name,category,date_start,date_end,interest,level,description_length,description,links
Computational Life Sciences,data viz,01/01/2001,09/01/2015,2,5,356,"Life sciences, and more particularly proteomics, is a domain where I pushed visualization the furthest. The problem are intrinsically complex, with vast amount of data and were a clear truth seldomly emerge. 
Collaboration with world class researchers and talentuous software developers allowed innovation on the technical side, but also on the methodology.","http://research-pub.gene.com/fishtones-js/howto/;fishTones.js
http://research-pub.gene.com/pviz/examples/;pViz.js"
Exploration Tools,data viz,01/01/2001,03/01/2015,5,4,356,"If data visualization can be a powerful medium for communication, it can also change the life of analysts or scientists. The goal is then to build exploration tool to remove the complications of actual data access and reveal nothing but the underlying complexity.
I have had the privilege to participate in a few such game changing projects.","http://research-pub.gene.com/fishtones-js/howto/;fishTones.js
http://research-pub.gene.com/pviz/examples/;pViz.js"
Dabshboards,data viz,03/01/2016,12/01/2017,3,3,229,"Between fully custom visualization (JavaScript/d3) and static reports (R/knitr) lies a series of powerful dasbhoarding tools.
If I had most development experience with Kibana, Tableau and Grafana are definitely part of my tool box","https://portal.klewel.com/watch/webcast/elastic-search-march-2017/talk/2,Building and deploying Kibana plugins ... And should I do it?;
https://blog.octo.com/en/a-journey-into-industrializing-the-writing-and-deployment-of-kibana-plugins-riding-docker/,A Journey into Industrializing the Writing and Deployment of Kibana Plugins (riding Docker)"
History & Theory,data viz,06/01/2013,8/30/2019,4,2,,"<em>""The only new thing in the world is the history you don't know""</em> -  Harry S. Truman. 
Studying data viz over the past 250 years and leveraging on research published by major authors is a rewarding path to apply this knowledge with modern tools.",
Graphs,data viz,06/01/2013,09/01/2015,4,3,162,"If graph are everywhere, there are often complex for the human brain to apprehend. Either rich or voluminuous, different techniques are to be used for navigating.",http://alexandre-masselot.blogspot.com/2014/05/viewing-graphs-in-browser.html;Viewing graphs in the browser
High Performance,data viz,06/01/2012,8/30/2019,1,4,218,"There are so many pixels on your screen, so much width on you band and so much information one brain can process. Various techniques, both on the back and front ends, must be put in place to handle large amounts of data.",https://blog.octo.com/en/d3-js-transitions-killed-my-cpu-a-d3-js-pixi-js-comparison/;D3.js transitions killed my CPU! A d3.js & pixi.js comparison
Maps  & Real Time,data viz,09/01/2015,8/30/2019,4,2,230,"Map are a natural ground for visualization and classic GIS are not the only road. I covered various aspects, from researchers collaborations, to archeological information and real time mapping of public transports","https://www.youtube.com/watch?v=yTigmCL68uw;Swiss Transport in Real Time: Tribulations in the Big Data Stack (VoxxedDay - Zürich)
https://blog.octo.com/en/visualizing-massive-data-streams-a-public-transport-use-case/;Visualizing massive data streams: a public transport use case
https://blog.octo.com/en/geo-localizing-medline-citations/;Where are the scientific publications coming from? Geolocalizing Medline citations"
Physics Models,data viz,06/01/1995,03/01/2000,1,4,232,"My Ph.D. period exposed me to various numerical models, and therefore a fertile ground for visualization. I could apply a vast range of techniques, from realtime rendering, to 3D software, slides injection and even mechanical setups.",
Reproducible Science,data viz,09/01/2010,8/30/2019,4,4,0,"Producing a graphic is a matter of data, transformation, layout. Too often is this production buried on hard drives, emails and vague reminiscences. Notebooks do exists to gather all this information together. If the usage picks up among the scientific community, notebooks are certainly the most ubiquituous tools (beside PowerPoint) in my consultant poisition at OCTO Technology.",QQQ observable
Software Craftsmanship,data viz,09/01/2013,8/30/2019,3,4,77,"Crafting software is generally accepted as being sound development practice. In data visualization production, it is less accepted. Partly because of the developper background and partly  because of the original challenges, such as  reusability or visual component testing. ","http://QQQ this notebook
pviz"
Classification Models,domain,06/01/2000,06/01/2005,3,2,23,"Building a model to sort interesting signals out of the noise is a Graal in certain domain. Before powerful method were to be democratized by TensorFlow and MLib (among others), we had to devize our own with SVM, Hidden Markov etc. At the end, some of those models did had huge impact on the company output.",QQQ publi Olav
Graphs,domain,01/01/2008,09/01/2015,3,4,36,"(Graph)-[:are]->(Everywhere), says the ad. They are, indeed. And offer new ways to tackle problem into our organizations, from cross experiment relations to a supply chain overview. Powerful tools can be set in action (Neo4j, Jung, GraphX etc.) but the real power is revealed when stakeholders start to view at their world from another perspective.",
High Performance Computing,domain,06/01/1995,03/01/2003,3,5,47,"From my Ph.D. in the HPC group to the largest private cluster in Europe (1600 nodes at GeneProt), I had plenty opportunities to implement algortihm on a vast variety of powerful beasts. Fortunatelty enough, those heroic times are over and we can rely on framework to mostly handle that part  for us.",
History,domain,01/01/2015,8/30/2019,4,2,53,"EBLOUI by a world where yesterday revolution is old news, we tend to forget lessons learned from the past. This is true in many aspect of my work and is a constant source of inspiration (Brinton, Amundsen, Conway, Testing etc.)",
Numerical Models,domain,06/01/1995,03/01/2000,2,4,62,"If my main topic of research was modeling snow transport by wind, I had the opportunity to collaborate to other topics, in theoretical physics (ballistics anihilation) or sociology",
Text Searching,domain,01/01/2010,03/01/2012,2,3,0,"More than actually programming, searching test is a mix of using Lucene (on the best ever written pieces of open source software) and meeting actual user needs. The challenge lies in sustaining performance while assuming tradeoffs in usability.",
Democratic Organization,management/lead,09/01/2015,8/30/2019,4,4,4,"Recruiting talentuous senior people, or growing more junior on thir steps does not correlate strongly with rigid hierarchy and incomprehensible processes. I was fortunate enough, at GeneBio and OCTO, to live some radical experiments in terms of distributed decision process and transaprency. I could also witness larger organizations with appealing HR strategies.",
Management & Strategy,management/lead,05/01/2003,8/30/2019,3,4,54,"Since 2002, I have held management positions with small or larger team and try to insuflate some special spirit among my crews (with some failures, also). Working in small company, I also played active role in the executive team.",
Mountain Troop Instructor,management/lead,11/01/1996,09/01/1997,3,1,0,"Ten months of duty brought me in the French Army Mountains Troops, at a moment where I was older than most younger officers, with a loaded enough track of montaineering achievemetns. Beside cultivating myself in the psychology of leadership, I had a position of mountain instructor. I had then the opportunity to spend outdoor period with Special Forces soldiers and discover other form of organization, surprisingly close to the ideal of an Agile team.",
Psychology,management/lead,01/01/2010,8/30/2019,3,2,62,"""No matter how it looks at first, it's always a people problem,"" said Gerald Weinberg. When developping a product, transforming an Information System (or skiing across the Arctic), technical skills are requirements and can most often be grown. The real challenges, in leadership, negociation, decision making, come with human interactions. An endless world, often disregarded in techno-driven organizations.",
Recruitment,management/lead,03/01/2000,8/30/2019,4,2,,"One way of growing a team power is through intrinsic development. The other is of course through recruitment. As Roald Amudsen wrote: ""the wrong companion is worst that the worst blizzard"", and signing in an illsuited team member can have serious consequences. I had the privileges to work in organizations (small or large) where those matters were taken into considerations and original solutions implemented, to find the best, seduce them and fight our own congnitive biases. ","blog OCTO recruit
"
Technology Evangelist,management/lead,05/01/2012,8/30/2019,3,4,17,"In a fast moving technical field, knowledge is constantly evolving. One cannot keep up alone and the surest way no to drown is to share the knowledge. I have been the organizer or active participant of various forms of gatherings, from tech forum, Brown Bag Lunches, conferences or meetups.",
Unsupported Polar Ski Expeditions,management/lead,06/01/1995,04/01/2004,5,3,0,"Ten years of unsupported polar expeditions profoundly shaped my approach to team working. From risk management to decision making, from tool selections to the ackwoledge of failures, from history to first hand experience, the applications in my daily life are countless.","http://www.framexpeditions.com; our (vintage) web site
http://blog.octo.com/QQQ; AAAAA
http://slideshare.com/QQQ; a talk often given around in various formats"
Agile/Lean in Research,methodo,06/01/2010,06/01/2015,4,4,0,"Lean is sometimes referered as ""think as a scientist."" However, scientific software development seldomly follow a lean or agile approach. The intrisinc uncertainty about the future, the imposibility to foresee blockers or successes makes the Agile methodology for that world. To work, it a course does not only require a few tools but a deeper organization changes.",http://QQQ agile in the lab
Automated Testing,methodo,06/01/2012,8/30/2019,3,4,0,"Automated testing is a crucial step to master for a steady product development. From unit to performance and chaos, it can cover many aspects and must deserve special attention.",
DevOps,methodo,09/01/2014,8/30/2019,3,3,0,"Methodology, organization tools (liquibase, CI/CD)",
Hero Model,methodo,03/01/2000,01/01/2014,1,5,,Too often our organization rely on the lone hero to save the deadline. ,
Lean,methodo,09/01/2015,8/30/2019,5,4,0,,
Lean UX,methodo,01/01/2010,8/30/2019,3,4,0,,
Product Innovation,methodo,09/01/2016,8/30/2019,4,3,0,,
Offshoring,methodo,05/01/2018,8/30/2019,3,4,,,
Product Ownership,methodo,09/01/2015,8/30/2019,3,4,15,Coaching & role,
Academic Assistant,teaching,06/01/1995,03/01/2000,2,3,0,,
Data Science for Biologists,teaching,02/01/2005,06/01/2011,4,3,59,"1 semester per year, master student at University of Geneva",
MBI,teaching,10/15/2017,8/30/2019,2,4,61,Contribute setup the cursus and teach the lean startup module.Master in Business Innovation (Crea),
Data viz,teaching,03/01/2019,3/15/2019,5,4,,,
Ph.D. & Master mentoring,teaching,09/01/2006,06/01/2011,4,3,45,3 Ph.D. and various masters in bioinformatics,
CI/CD,techno,01/01/2010,8/30/2019,3,4,33,"Hudson/Jenkins, Gitlab CI, Perl, ",
NoSQL,techno,06/01/2012,8/30/2019,3,2,23,"MongoDB, Elastic, Neo4j",
Reactive programming,techno,06/01/2012,8/30/2019,3,2,0,"Manifesto, but aso kafka, akka, Google, HA",
C++,techno,03/01/2000,01/01/2010,1,2,0,,
D3.js,techno,06/01/2013,8/30/2019,4,4,0,,
Docker Ecosystem,techno,12/15/2016,8/30/2019,2,3,23,"Docker, kubernetes, AWS",
Fortran,techno,06/01/1995,03/01/2000,1,5,0,,
JavaScript World,techno,01/01/2000,8/30/2019,3,4,96,"JavaScript, Typescript, Angular(JS), React (native) and older techno (Backbone, jQuery). backend",
JVM Stack,techno,01/01/2005,8/30/2019,3,4,20,"Java, Groovy, Kotlin, spring ",
MPI,techno,06/01/1995,03/01/2005,1,5,0,,
Perl,techno,03/01/2000,06/01/2012,3,4,58,"clena, CI, Larry Wall... And I live with a cat named Perl.",http://bit.ly/cicd-perl;Continuous Deployment in Perl: Code & Folks
R,techno,01/01/2008,8/30/2019,3,4,0,,
Scala,techno,06/01/2012,09/01/2016,5,3,0,,
Spark,techno,06/01/2012,09/01/2015,3,1,0,,
Go,techno,09/01/2018,8/30/2019,3,2,,,